<?xml version="1.0" encoding="utf-8"?>
<!-- Generator: Adobe Illustrator 23.0.3, SVG Export Plug-In . SVG Version: 6.00 Build 0)  -->
<svg version="1.1" id="Layer_1" xmlns="http://www.w3.org/2000/svg" xmlns:xlink="http://www.w3.org/1999/xlink" x="0px" y="0px"
	 viewBox="0 0 216 216" style="enable-background:new 0 0 216 216;" xml:space="preserve">
<style type="text/css">
	.st0{fill:#D51C29;}
	.st1{fill:#FFFFFF;}
</style>
<g>
	<path class="st0" d="M168.7,112.1c-1.3-26.6,10.7-50.8,30.2-66.8l-12.2-16.6c-8,4.5-17.9,6.7-28.5,5.9c-18.2-1.5-33.1-12-38.7-25.6
		H96.4C90.8,22.6,76,33.1,57.7,34.6c-10.5,0.9-20.5-1.4-28.5-5.9L17.1,45.3c19.6,16,31.5,40.2,30.2,66.8
		C46,138.3,32.2,161,11.6,175.2l5.9,17.8c10.8-5.8,23.3-9.1,36.5-9c21.3,0.1,40.4,9,54,23.1c13.5-14.1,32.7-22.9,54-23.1
		c13.2-0.1,25.7,3.2,36.5,9l5.9-17.8C183.8,161,170,138.3,168.7,112.1z"/>
</g>
<g>
	<g>
		<path class="st1" d="M61.6,168.1v3.4H50.7v-19.9h4.2v16.5H61.6z"/>
		<path class="st1" d="M69,159.8h7.1v3.3H69v5h7.1v3.3H64.8v-19.9h11.3v3.3H69V159.8z"/>
		<path class="st1" d="M84.2,168.1l-1.2,3.4h-4.4l7-19.9h5.2l6.9,19.9h-4.6l-1.2-3.4H84.2z M88.1,156.5l-2.8,8.2h5.6L88.1,156.5z"/>
		<path class="st1" d="M106.7,171.5h-4.2v-16.6h-4.8v-3.3h13.8v3.3h-4.8V171.5z"/>
		<path class="st1" d="M119.1,171.5h-4.2v-19.9h4.2v8.4h7.7v-8.4h4.2v19.9h-4.2v-8.2h-7.7V171.5z"/>
		<path class="st1" d="M139.7,159.8h7.1v3.3h-7.1v5h7.1v3.3h-11.3v-19.9h11.3v3.3h-7.1V159.8z"/>
		<path class="st1" d="M155.6,171.5h-4.2v-19.9h6.3c5,0,7.7,2.2,7.7,6.3c0,3.1-1.7,5.2-4.8,6l5.6,7.6h-5l-5.6-7.9V171.5z
			 M157.5,161.2c2.4,0,3.7-1.1,3.7-3.1c0-1.9-1.3-3.1-3.3-3.1h-2.3v6.2H157.5z"/>
	</g>
</g>
<g>
	<path class="st1" d="M77.4,50.8h4.1v1.1h-4.1v3.5h4.1v1.1h-5.4V46.3h5.4v1.1h-4.1V50.8z"/>
	<path class="st1" d="M84.4,53.8c0.1,1.2,0.7,1.8,1.8,1.8c1.2,0,2-0.7,2-1.7c0-0.9-0.5-1.3-2.1-1.8c-1.2-0.4-1.6-0.6-2.1-1
		c-0.5-0.5-0.8-1.2-0.8-2c0-1.7,1.3-2.9,3.1-2.9s3.1,1.2,3.1,2.9h-1.3c0-0.5-0.1-0.8-0.3-1c-0.3-0.5-0.9-0.7-1.6-0.7
		c-1,0-1.8,0.7-1.8,1.7c0,0.5,0.2,0.9,0.6,1.2c0.3,0.2,0.6,0.4,1.7,0.7c1.1,0.4,1.6,0.7,2.1,1.1c0.5,0.5,0.7,1.1,0.7,1.8
		c0,1.8-1.3,3-3.3,3c-1.3,0-2.3-0.5-2.8-1.4c-0.2-0.4-0.4-0.9-0.4-1.3v-0.2H84.4z"/>
	<path class="st1" d="M94.5,56.5h-1.3v-9.2h-2.7v-1.1h6.6v1.1h-2.6V56.5z"/>
	<path class="st1" d="M99.5,55.9c0,0.4-0.4,0.8-0.8,0.8c-0.5,0-0.8-0.4-0.8-0.8c0-0.5,0.3-0.8,0.8-0.8S99.5,55.4,99.5,55.9z"/>
	<path class="st1" d="M108.1,48.9v-1.3L112,45v11.5h-1.4v-9.3L108.1,48.9z"/>
	<path class="st1" d="M119.5,52c-0.5,0.2-0.7,0.2-1.1,0.2c-2,0-3.5-1.5-3.5-3.5c0-2,1.7-3.6,3.8-3.6c2.1,0,3.7,1.6,3.7,3.6
		c0,0.9-0.2,1.5-0.8,2.5l-3.3,5.4h-1.6L119.5,52z M116.3,48.7c0,1.3,1,2.3,2.3,2.3c1.3,0,2.4-1,2.4-2.3c0-1.3-1-2.3-2.3-2.3
		C117.4,46.3,116.3,47.4,116.3,48.7z"/>
	<path class="st1" d="M124.5,46.5v-1.2h6.6l-3.4,4.3c2,0,3.4,1.4,3.4,3.4c0,2.1-1.6,3.7-3.8,3.7c-1.8,0-3.1-1-3.5-2.7l1.3-0.2
		c0.3,1.1,1.1,1.7,2.2,1.7c1.4,0,2.5-1,2.5-2.4c0-1.4-1-2.3-2.6-2.3c-0.5,0-0.9,0.1-1.4,0.4l-0.6-0.5l3.4-4.1H124.5z"/>
	<path class="st1" d="M137.3,52c-0.5,0.2-0.7,0.2-1.1,0.2c-2,0-3.5-1.5-3.5-3.5c0-2,1.7-3.6,3.8-3.6c2.1,0,3.7,1.6,3.7,3.6
		c0,0.9-0.2,1.5-0.8,2.5l-3.3,5.4h-1.6L137.3,52z M134.1,48.7c0,1.3,1,2.3,2.3,2.3c1.3,0,2.4-1,2.4-2.3c0-1.3-1-2.3-2.3-2.3
		C135.2,46.3,134.1,47.4,134.1,48.7z"/>
</g>
<g>
	<g>
		<path class="st1" d="M64.9,65h30.6c21.8,0,31.5,8,31.5,29.8v16.1c0,21-6.9,30.9-28.7,30.9H64.9V65z M85.8,124H95
			c7.7,0,10.5-5,10.5-13.1V94.9c0-9.9-3.2-12-10.5-12h-9.2V124z"/>
		<rect x="133.2" y="88.1" class="st1" width="17.9" height="53.8"/>
		<g>
			<path class="st1" d="M143.4,65h-10.3v13.5h17.9v-5.8C147,72.2,143.9,69.1,143.4,65z"/>
		</g>
	</g>
	<g id="kVbAsK.tif_5_">
		<g>
			<path class="st1" d="M162.6,62.1c0,4.5-3.7,8.1-8.3,8.1c-4.6,0-8.3-3.8-8.2-8.3c0.1-4.3,3.7-7.9,8.3-7.9
				C159,54,162.6,57.6,162.6,62.1z M147.3,62.1c0,3.8,3.1,6.9,7,7c3.9,0,7.1-3.1,7.1-6.9c0-3.8-3.1-7-7-7
				C150.5,55.1,147.3,58.2,147.3,62.1z"/>
			<path class="st1" d="M156.3,62.8c0.3,0.7,0.6,1.5,0.9,2.2c0.1,0.4,0.3,0.7,0.4,1.1c0.1,0.2,0,0.3-0.2,0.3c-0.2,0-0.4,0-0.6,0
				c-0.3,0-0.3,0-0.4-0.3c-0.4-1-0.8-2-1.2-3c-0.1-0.1-0.1-0.2-0.3-0.2c-0.6,0-1.2,0-1.8,0c-0.1,0-0.2,0-0.2,0.2c0,1,0,2,0,3
				c0,0.2,0,0.3-0.3,0.3c-0.2,0-0.4,0-0.6,0c-0.2,0-0.3,0-0.3-0.3c0-1.3,0-2.7,0-4c0-1.2,0-2.4,0-3.6c0-0.3,0-0.3,0.3-0.3
				c1.2,0,2.4,0,3.5,0c1,0,1.9,0.8,1.9,1.9c0,0.4,0,0.8,0,1.1c-0.1,0.7-0.5,1.1-1,1.5C156.4,62.7,156.4,62.7,156.3,62.8
				C156.3,62.7,156.3,62.8,156.3,62.8z M153,61.7c0,0,0.1,0,0.1,0c0.8,0,1.6,0,2.5,0c0.5,0,0.9-0.4,0.9-0.9c0-0.2,0-0.4,0-0.6
				c0-0.5-0.4-0.9-0.9-0.9c-0.8,0-1.5,0-2.3,0c-0.2,0-0.2,0.1-0.2,0.2c0,0.6,0,1.2,0,1.8C153,61.5,153,61.6,153,61.7z"/>
		</g>
	</g>
</g>
</svg>
