<?xml version="1.0" encoding="UTF-8"?>
<testsuites>
  <testsuite name="" tests="1" assertions="4" errors="0" warnings="1" failures="0" skipped="0" time="0.122155">
    <testsuite name="CodeIgniter Application Test Suite" tests="1" assertions="4" errors="0" warnings="1" failures="0" skipped="0" time="0.122155">
      <testsuite name="Welcome_test" file="C:\xampp\htdocs\bookstore\application\tests\controllers\Welcome_test.php" tests="1" assertions="4" errors="0" warnings="1" failures="0" skipped="0" time="0.122155">
        <testcase name="test_price" class="Welcome_test" classname="Welcome_test" file="C:\xampp\htdocs\bookstore\application\tests\controllers\Welcome_test.php" line="13" assertions="4" time="0.122155">
          <warning type="PHPUnit\Framework\Warning">Welcome_test::test_price
PHPUnit\Framework\TestCase::$backupGlobalsBlacklist is deprecated and will be removed in PHPUnit 10. Please use PHPUnit\Framework\TestCase::$backupGlobalsExcludeList instead.</warning>
        </testcase>
      </testsuite>
    </testsuite>
  </testsuite>
</testsuites>
